GIS Operations in R
…
---

## Logical subsetting

```r
i <- world$area_km2 < 10000

(small_countries <- world[i, ])
## Simple feature collection with 7 features and 5 fields
## Geometry type: MULTIPOLYGON
## Dimension:     XY
## Bounding box:  xmin: -67.24243 ymin: -16.59785 xmax: 167.8449 ymax: 50.12805
## Geodetic CRS:  WGS 84
## # A tibble: 7 x 6
##   name_long  continent area_km2     pop gdpPercap                           geom
##   <chr>      <chr>        <dbl>   <dbl>     <dbl>             <MULTIPOLYGON [°]>
## 1 Puerto Ri~ North Am~    9225. 3534874    35066. (((-66.28243 18.51476, -65.77~
## 2 Palestine  Asia         5037. 4294682     4320. (((35.39756 31.48909, 34.9274~
## 3 Vanuatu    Oceania      7490.  258850     2892. (((167.2168 -15.89185, 167.84~
## 4 Luxembourg Europe       2417.  556319    93655. (((6.043073 50.12805, 6.24275~
## 5 Northern ~ Asia         3786.      NA       NA  (((32.73178 35.14003, 32.8024~
## # ... with 2 more rows
```

---

## Logical subsetting

```r
subset(world, area_km2 < 10000)
## Simple feature collection with 7 features and 5 fields
## Geometry type: MULTIPOLYGON
## Dimension:     XY
## Bounding box:  xmin: -67.24243 ymin: -16.59785 xmax: 167.8449 ymax: 50.12805
## Geodetic CRS:  WGS 84
## # A tibble: 7 x 6
##   name_long  continent area_km2     pop gdpPercap                           geom
##   <chr>      <chr>        <dbl>   <dbl>     <dbl>             <MULTIPOLYGON [°]>
## 1 Puerto Ri~ North Am~    9225. 3534874    35066. (((-66.28243 18.51476, -65.77~
## 2 Palestine  Asia         5037. 4294682     4320. (((35.39756 31.48909, 34.9274~
## 3 Vanuatu    Oceania      7490.  258850     2892. (((167.2168 -15.89185, 167.84~
## 4 Luxembourg Europe       2417.  556319    93655. (((6.043073 50.12805, 6.24275~
## 5 Northern ~ Asia         3786.      NA       NA  (((32.73178 35.14003, 32.8024~
## # ... with 2 more rows
```

---

## Selecting variables

```r
# world[, "name_long"]

subset(world, select = "name_long")
## Simple feature collection with 177 features and 1 field
## Geometry type: MULTIPOLYGON
## Dimension:     XY
## Bounding box:  xmin: -180 ymin: -90 xmax: 180 ymax: 83.64513
## Geodetic CRS:  WGS 84
## # A tibble: 177 x 2
##   name_long                                                                 geom
##   <chr>                                                       <MULTIPOLYGON [°]>
## 1 Fiji          (((180 -16.06713, 180 -16.55522, 179.3641 -16.80135, 178.7251 -~
## 2 Tanzania      (((33.90371 -0.95, 34.07262 -1.05982, 37.69869 -3.09699, 37.766~
## 3 Western Saha~ (((-8.66559 27.65643, -8.665124 27.58948, -8.6844 27.39574, -8.~
## 4 Canada        (((-122.84 49, -122.9742 49.00254, -124.9102 49.98456, -125.624~
## 5 United States (((-122.84 49, -120 49, -117.0312 49, -116.0482 49, -113 49, -1~
## # ... with 172 more rows
```
…
---

## dplyr

```r
world %>% 
  filter(area_km2 < 10000) %>% 
  select(name_long, area_km2)
## Simple feature collection with 7 features and 2 fields
## Geometry type: MULTIPOLYGON
## Dimension:     XY
## Bounding box:  xmin: -67.24243 ymin: -16.59785 xmax: 167.8449 ymax: 50.12805
## Geodetic CRS:  WGS 84
## # A tibble: 7 x 3
##   name_long     area_km2                                                    geom
##   <chr>            <dbl>                                      <MULTIPOLYGON [°]>
## 1 Puerto Rico      9225. (((-66.28243 18.51476, -65.7713 18.42668, -65.591 18.2~
## 2 Palestine        5037. (((35.39756 31.48909, 34.92741 31.35344, 34.97051 31.6~
## 3 Vanuatu          7490. (((167.2168 -15.89185, 167.8449 -16.46633, 167.5152 -1~
## 4 Luxembourg       2417. (((6.043073 50.12805, 6.242751 49.90223, 6.18632 49.46~
## 5 Northern Cyp~    3786. (((32.73178 35.14003, 32.80247 35.1455, 32.94696 35.38~
## # ... with 2 more rows
```
…
## Join

```r
world_coffee <- left_join(world, coffee_data, by = "name_long")

world_coffee %>% 
  select(name_long, coffee_production_2017) %>% 
  filter(!is.na(coffee_production_2017))
## Simple feature collection with 34 features and 2 fields
## Geometry type: MULTIPOLYGON
## Dimension:     XY
## Bounding box:  xmin: -117.1278 ymin: -33.76838 xmax: 156.02 ymax: 35.49401
## Geodetic CRS:  WGS 84
## # A tibble: 34 x 3
##   name_long    coffee_production_~                                          geom
## * <chr>                      <int>                            <MULTIPOLYGON [°]>
## 1 Tanzania                      66 (((33.90371 -0.95, 34.07262 -1.05982, 37.698~
## 2 Papua New G~                  74 (((141.0002 -2.600151, 142.7352 -3.289153, 1~
## 3 Indonesia                    360 (((141.0002 -2.600151, 141.0171 -5.859022, 1~
## 4 Kenya                         50 (((39.20222 -4.67677, 37.7669 -3.67712, 37.6~
## 5 Timor-Leste                    2 (((124.9687 -8.89279, 125.0862 -8.656887, 12~
## # ... with 29 more rows
```
…
```r
# world <- transform(world, pop_dens = (pop / area_km2))

world <- mutate(world, 
                pop_dens = (pop / area_km2),
                gdp_dens = (gdpPercap / area_km2))

world %>% select(name_long, pop_dens, gdp_dens)
## Simple feature collection with 177 features and 3 fields
## Geometry type: MULTIPOLYGON
## Dimension:     XY
## Bounding box:  xmin: -180 ymin: -90 xmax: 180 ymax: 83.64513
## Geodetic CRS:  WGS 84
## # A tibble: 177 x 4
##   name_long    pop_dens gdp_dens                                            geom
##   <chr>           <dbl>    <dbl>                              <MULTIPOLYGON [°]>
## 1 Fiji            45.9   0.426   (((180 -16.06713, 180 -16.55522, 179.3641 -16.~
## 2 Tanzania        56.0   0.00258 (((33.90371 -0.95, 34.07262 -1.05982, 37.69869~
## 3 Western Sah~    NA    NA       (((-8.66559 27.65643, -8.665124 27.58948, -8.6~
## 4 Canada           3.54  0.00429 (((-122.84 49, -122.9742 49.00254, -124.9102 4~
## 5 United Stat~    33.5   0.00546 (((-122.84 49, -120 49, -117.0312 49, -116.048~
## # ... with 172 more rows
```
…
