Spatial Data in R
…
* `st` originally meant "__S__patial and __T__emporal" in PostGIS, but support for temporal data was dropped, so it became "__S__patial __T__ype". [https://stackoverflow.com/questions/7234679/what-is-st-in-postgis](https://stackoverflow.com/questions/7234679/what-is-st-in-postgis)

---

## __s__imple __f__eature (`sf`)

```r
world
## Simple feature collection with 177 features and 5 fields
## Geometry type: MULTIPOLYGON
## Dimension:     XY
## Bounding box:  xmin: -180 ymin: -90 xmax: 180 ymax: 83.64513
## Geodetic CRS:  WGS 84
## # A tibble: 177 x 6
##   name_long  continent  area_km2     pop gdpPercap                          geom
##   <chr>      <chr>         <dbl>   <dbl>     <dbl>            <MULTIPOLYGON [°]>
## 1 Fiji       Oceania      1.93e4  8.86e5     8222. (((180 -16.06713, 180 -16.55~
## 2 Tanzania   Africa       9.33e5  5.22e7     2402. (((33.90371 -0.95, 34.07262 ~
## 3 Western S~ Africa       9.63e4 NA            NA  (((-8.66559 27.65643, -8.665~
## 4 Canada     North Ame~   1.00e7  3.55e7    43079. (((-122.84 49, -122.9742 49.~
## 5 United St~ North Ame~   9.51e6  3.19e8    51922. (((-122.84 49, -120 49, -117~
## # ... with 172 more rows
```
…
