Spatial Data in R
…
---

## `select()` columns

```r
world %>% select(name_long)
```

```
## Simple feature collection with 177 features and 1 field
## Geometry type: MULTIPOLYGON
## Dimension:     XY
## Bounding box:  xmin: -180 ymin: -90 xmax: 180 ymax: 83.64513
## Geodetic CRS:  WGS 84
## # A tibble: 177 x 2
##   name_long                                                                 geom
##   <chr>                                                       <MULTIPOLYGON [째]>
## 1 Fiji          (((180 -16.06713, 180 -16.55522, 179.3641 -16.80135, 178.7251 -~
## 2 Tanzania      (((33.90371 -0.95, 34.07262 -1.05982, 37.69869 -3.09699, 37.766~
## 3 Western Saha~ (((-8.66559 27.65643, -8.665124 27.58948, -8.6844 27.39574, -8.~
## 4 Canada        (((-122.84 49, -122.9742 49.00254, -124.9102 49.98456, -125.624~
## 5 United States (((-122.84 49, -120 49, -117.0312 49, -116.0482 49, -113 49, -1~
## # ... with 172 more rows
```
---

## `filter()` rows

```r
world %>% filter(area_km2 < 10000)
```

```
## Simple feature collection with 7 features and 5 fields
## Geometry type: MULTIPOLYGON
## Dimension:     XY
## Bounding box:  xmin: -67.24243 ymin: -16.59785 xmax: 167.8449 ymax: 50.12805
## Geodetic CRS:  WGS 84
## # A tibble: 7 x 6
##   name_long  continent area_km2     pop gdpPercap                           geom
## * <chr>      <chr>        <dbl>   <dbl>     <dbl>             <MULTIPOLYGON [째]>
## 1 Puerto Ri~ North Am~    9225. 3534874    35066. (((-66.28243 18.51476, -65.77~
## 2 Palestine  Asia         5037. 4294682     4320. (((35.39756 31.48909, 34.9274~
## 3 Vanuatu    Oceania      7490.  258850     2892. (((167.2168 -15.89185, 167.84~
## 4 Luxembourg Europe       2417.  556319    93655. (((6.043073 50.12805, 6.24275~
## 5 Northern ~ Asia         3786.      NA       NA  (((32.73178 35.14003, 32.8024~
## # ... with 2 more rows
```
---

## `mutate()` variables

```r
world %>% mutate(pop_dens = (pop / area_km2))
```

```
## Simple feature collection with 177 features and 4 fields
## Geometry type: MULTIPOLYGON
## Dimension:     XY
## Bounding box:  xmin: -180 ymin: -90 xmax: 180 ymax: 83.64513
## Geodetic CRS:  WGS 84
## # A tibble: 177 x 5
##   name_long   pop_dens      pop area_km2                                    geom
##   <chr>          <dbl>    <dbl>    <dbl>                      <MULTIPOLYGON [째]>
## 1 Fiji           45.9    8.86e5   1.93e4 (((180 -16.06713, 180 -16.55522, 179.3~
## 2 Tanzania       56.0    5.22e7   9.33e5 (((33.90371 -0.95, 34.07262 -1.05982, ~
## 3 Western Sa~    NA     NA        9.63e4 (((-8.66559 27.65643, -8.665124 27.589~
## 4 Canada          3.54   3.55e7   1.00e7 (((-122.84 49, -122.9742 49.00254, -12~
## 5 United Sta~    33.5    3.19e8   9.51e6 (((-122.84 49, -120 49, -117.0312 49, ~
## # ... with 172 more rows
```
…
## `left_join()` tables

```r
world_coffee <- world %>% left_join(coffee_data)

select(world_coffee, name_long, coffee_production_2017)
```

```
## Simple feature collection with 177 features and 2 fields
## Geometry type: MULTIPOLYGON
## Dimension:     XY
## Bounding box:  xmin: -180 ymin: -90 xmax: 180 ymax: 83.64513
## Geodetic CRS:  WGS 84
## # A tibble: 177 x 3
##   name_long    coffee_production~                                           geom
##   <chr>                     <int>                             <MULTIPOLYGON [째]>
## 1 Fiji                         NA (((180 -16.06713, 180 -16.55522, 179.3641 -16~
## 2 Tanzania                     66 (((33.90371 -0.95, 34.07262 -1.05982, 37.6986~
## 3 Western Sah~                 NA (((-8.66559 27.65643, -8.665124 27.58948, -8.~
## 4 Canada                       NA (((-122.84 49, -122.9742 49.00254, -124.9102 ~
## 5 United Stat~                 NA (((-122.84 49, -120 49, -117.0312 49, -116.04~
## # ... with 172 more rows
```
…
